{
    "name": "Tank Controls",
    "maps": [
        {
            "name": "Tank",
            "id": "1b350e18-572f-4a67-9813-3e8c7c318659",
            "actions": [
                {
                    "name": "Movement",
                    "type": "Value",
                    "id": "e3f02787-5daf-4fd0-920d-f5743e01cbc1",
                    "expectedControlType": "Vector2",
                    "processors": "",
                    "interactions": "",
                    "initialStateCheck": true
                },
                {
                    "name": "Attack",
                    "type": "Button",
                    "id": "b8a6c0ff-5268-4311-9283-b5855764c571",
                    "expectedControlType": "Button",
                    "processors": "",
                    "interactions": "",
                    "initialStateCheck": false
                },
                {
                    "name": "Rotate",
                    "type": "Value",
                    "id": "88358c3d-ad6b-4ff7-8c97-c13f2a532c82",
                    "expectedControlType": "Vector2",
                    "processors": "",
                    "interactions": "",
                    "initialStateCheck": true
                }
            ],
            "bindings": [
                {
                    "name": "",
                    "id": "519f1198-570c-4715-b86b-682b71bd0e72",
                    "path": "<Gamepad>/leftStick",
                    "interactions": "",
                    "processors": "",
                    "groups": "",
                    "action": "Movement",
                    "isComposite": false,
                    "isPartOfComposite": false
                },
                {
                    "name": "",
                    "id": "539fe2b4-9a69-4c74-b57a-c4c34d2bca50",
                    "path": "<Gamepad>/buttonSouth",
                    "interactions": "",
                    "processors": "",
                    "groups": "",
                    "action": "Attack",
                    "isComposite": false,
                    "isPartOfComposite": false
                },
                {
                    "name": "",
                    "id": "da56203e-1670-4d15-963f-b728522e9c37",
                    "path": "<Gamepad>/rightStick",
                    "interactions": "",
                    "processors": "",
                    "groups": "",
                    "action": "Rotate",
                    "isComposite": false,
                    "isPartOfComposite": false
                }
            ]
        }
    ],
    "controlSchemes": []
}